<?xml version="1.0" encoding="UTF-8" standalone="no"?>
<!-- Created with Inkscape (http://www.inkscape.org/) -->

<svg
   xmlns:dc="http://purl.org/dc/elements/1.1/"
   xmlns:cc="http://creativecommons.org/ns#"
   xmlns:rdf="http://www.w3.org/1999/02/22-rdf-syntax-ns#"
   xmlns:svg="http://www.w3.org/2000/svg"
   xmlns="http://www.w3.org/2000/svg"
   xmlns:sodipodi="http://sodipodi.sourceforge.net/DTD/sodipodi-0.dtd"
   xmlns:inkscape="http://www.inkscape.org/namespaces/inkscape"
   width="210mm"
   height="297mm"
   id="svg4217"
   version="1.1"
   inkscape:version="0.48.4 r9939"
   sodipodi:docname="anagram_graph.svg"
   inkscape:export-filename="/home/daniel/workspace/dp/doc/pic/anagram_graph.png"
   inkscape:export-xdpi="90"
   inkscape:export-ydpi="90">
  <sodipodi:namedview
     inkscape:document-units="mm"
     id="base"
     pagecolor="#ffffff"
     bordercolor="#666666"
     borderopacity="1.0"
     inkscape:pageopacity="0.0"
     inkscape:pageshadow="2"
     inkscape:zoom="1.4142136"
     inkscape:cx="231.6373"
     inkscape:cy="320.21888"
     inkscape:current-layer="layer1"
     showgrid="false"
     inkscape:window-width="1440"
     inkscape:window-height="813"
     inkscape:window-x="0"
     inkscape:window-y="27"
     inkscape:window-maximized="1" />
  <defs
     id="defs3">
    <inkscape:path-effect
       fuse_tolerance="0"
       vertical_pattern="false"
       prop_units="false"
       tang_offset="0"
       normal_offset="0"
       spacing="0"
       scale_y_rel="false"
       prop_scale="1"
       copytype="single_stretched"
       pattern="M 0,5 C 0,2.24 2.24,0 5,0 7.76,0 10,2.24 10,5 10,7.76 7.76,10 5,10 2.24,10 0,7.76 0,5 z"
       is_visible="true"
       id="path-effect4548"
       effect="skeletal" />
    <inkscape:path-effect
       fuse_tolerance="0"
       vertical_pattern="false"
       prop_units="false"
       tang_offset="0"
       normal_offset="0"
       spacing="0"
       scale_y_rel="false"
       prop_scale="1"
       copytype="single_stretched"
       pattern="M 0,0 0,10 10,5 z"
       is_visible="true"
       id="path-effect4544"
       effect="skeletal" />
    <inkscape:perspective
       id="perspective4526"
       inkscape:persp3d-origin="372.04724 : 350.78739 : 1"
       inkscape:vp_z="744.09448 : 526.18109 : 1"
       inkscape:vp_y="0 : 1000 : 0"
       inkscape:vp_x="0 : 526.18109 : 1"
       sodipodi:type="inkscape:persp3d" />
  </defs>
  <metadata
     id="metadata4">
    <rdf:RDF>
      <cc:Work
         rdf:about="">
        <dc:format>image/svg+xml</dc:format>
        <dc:type
           rdf:resource="http://purl.org/dc/dcmitype/StillImage" />
        <dc:title></dc:title>
      </cc:Work>
    </rdf:RDF>
  </metadata>
  <g
     id="layer1"
     inkscape:groupmode="layer"
     inkscape:label="Layer 1">
    <path
       transform="matrix(1.9177019,0,0,1.9177019,-89.919086,-868.08694)"
       d="m 120.20815,964.47888 a 36.36549,36.36549 0 1 1 -72.730981,0 36.36549,36.36549 0 1 1 72.730981,0 z"
       sodipodi:ry="36.36549"
       sodipodi:rx="36.36549"
       sodipodi:cy="964.47888"
       sodipodi:cx="83.842659"
       id="path4305"
       style="fill:none;stroke:#000000;stroke-width:1.17637789;stroke-miterlimit:4;stroke-opacity:1;stroke-dasharray:none"
       sodipodi:type="arc" />
    <path
       transform="matrix(1.9177019,0,0,1.9177019,193.54548,-868.08694)"
       d="m 120.20815,964.47888 a 36.36549,36.36549 0 1 1 -72.730981,0 36.36549,36.36549 0 1 1 72.730981,0 z"
       sodipodi:ry="36.36549"
       sodipodi:rx="36.36549"
       sodipodi:cy="964.47888"
       sodipodi:cx="83.842659"
       id="path4305-7"
       style="fill:none;stroke:#000000;stroke-width:1.17637789;stroke-miterlimit:4;stroke-opacity:1;stroke-dasharray:none"
       sodipodi:type="arc" />
    <path
       transform="matrix(1.9177019,0,0,1.9177019,-89.919086,-1151.5515)"
       d="m 120.20815,964.47888 a 36.36549,36.36549 0 1 1 -72.730981,0 36.36549,36.36549 0 1 1 72.730981,0 z"
       sodipodi:ry="36.36549"
       sodipodi:rx="36.36549"
       sodipodi:cy="964.47888"
       sodipodi:cx="83.842659"
       id="path4305-7-6"
       style="fill:none;stroke:#000000;stroke-width:1.17637789;stroke-miterlimit:4;stroke-opacity:1;stroke-dasharray:none"
       sodipodi:type="arc" />
    <path
       transform="matrix(1.9177019,0,0,1.9177019,193.54548,-1151.5515)"
       d="m 120.20815,964.47888 a 36.36549,36.36549 0 1 1 -72.730981,0 36.36549,36.36549 0 1 1 72.730981,0 z"
       sodipodi:ry="36.36549"
       sodipodi:rx="36.36549"
       sodipodi:cy="964.47888"
       sodipodi:cx="83.842659"
       id="path4305-7-6-1"
       style="fill:none;stroke:#000000;stroke-width:1.17637789;stroke-miterlimit:4;stroke-opacity:1;stroke-dasharray:none"
       sodipodi:type="arc" />
    <text
       sodipodi:linespacing="125%"
       id="text4363"
       y="945.28601"
       x="60.025284"
       style="font-size:24px;font-style:normal;font-variant:normal;font-weight:normal;font-stretch:normal;line-height:125%;letter-spacing:0px;word-spacing:0px;writing-mode:lr-tb;fill:#000000;fill-opacity:1;stroke:none;font-family:Monospace;-inkscape-font-specification:Monospace"
       xml:space="preserve"><tspan
         y="945.28601"
         x="60.025284"
         id="tspan4365"
         sodipodi:role="line">F</tspan><tspan
         id="tspan4367"
         y="975.28601"
         x="60.025284"
         sodipodi:role="line">A</tspan><tspan
         id="tspan4369"
         y="1005.286"
         x="60.025284"
         sodipodi:role="line">E</tspan><tspan
         id="tspan4371"
         y="1035.286"
         x="60.025284"
         sodipodi:role="line">X</tspan></text>
    <text
       sodipodi:linespacing="125%"
       id="text4363-6"
       y="661.77991"
       x="60.025284"
       style="font-size:24px;font-style:normal;font-variant:normal;font-weight:normal;font-stretch:normal;line-height:125%;letter-spacing:0px;word-spacing:0px;writing-mode:lr-tb;fill:#000000;fill-opacity:1;stroke:none;font-family:Monospace;-inkscape-font-specification:Monospace"
       xml:space="preserve"><tspan
         id="tspan4371-4"
         y="661.77991"
         x="60.025284"
         sodipodi:role="line">S</tspan><tspan
         id="tspan4488"
         y="691.77991"
         x="60.025284"
         sodipodi:role="line">O</tspan><tspan
         id="tspan4490"
         y="721.77991"
         x="60.025284"
         sodipodi:role="line">Y</tspan><tspan
         id="tspan4492"
         y="751.77991"
         x="60.025284"
         sodipodi:role="line">T</tspan></text>
    <text
       sodipodi:linespacing="125%"
       id="text4363-6-8"
       y="945.28699"
       x="346.43433"
       style="font-size:24px;font-style:normal;font-variant:normal;font-weight:normal;font-stretch:normal;line-height:125%;letter-spacing:0px;word-spacing:0px;writing-mode:lr-tb;fill:#000000;fill-opacity:1;stroke:none;font-family:Monospace;-inkscape-font-specification:Monospace"
       xml:space="preserve"><tspan
         id="tspan4371-4-4"
         y="945.28699"
         x="346.43433"
         sodipodi:role="line">I</tspan><tspan
         id="tspan4512"
         y="975.28699"
         x="346.43433"
         sodipodi:role="line">U</tspan><tspan
         id="tspan4514"
         y="1005.287"
         x="346.43433"
         sodipodi:role="line">T</tspan><tspan
         id="tspan4522"
         y="1035.287"
         x="346.43433"
         sodipodi:role="line">X</tspan></text>
    <text
       sodipodi:linespacing="125%"
       id="text4363-6-8-2"
       y="661.77991"
       x="346.43433"
       style="font-size:24px;font-style:normal;font-variant:normal;font-weight:normal;font-stretch:normal;line-height:125%;letter-spacing:0px;word-spacing:0px;writing-mode:lr-tb;fill:#000000;fill-opacity:1;stroke:none;font-family:Monospace;-inkscape-font-specification:Monospace"
       xml:space="preserve"><tspan
         id="tspan4371-4-4-7"
         y="661.77991"
         x="346.43433"
         sodipodi:role="line">R</tspan><tspan
         id="tspan4500"
         y="691.77991"
         x="346.43433"
         sodipodi:role="line">N</tspan><tspan
         id="tspan4502"
         y="721.77991"
         x="346.43433"
         sodipodi:role="line">X</tspan><tspan
         id="tspan4504"
         y="751.77991"
         x="346.43433"
         sodipodi:role="line">X</tspan></text>
    <path
       style="fill:none;stroke:#000000;stroke-width:1.17908013px;stroke-linecap:butt;stroke-linejoin:miter;stroke-opacity:1"
       d="m 142.32182,980.9065 c 140.55404,0 140.55404,0 140.55404,0"
       id="path4614"
       inkscape:connector-curvature="0" />
    <path
       style="fill:none;stroke:#000000;stroke-width:1.17908013px;stroke-linecap:butt;stroke-linejoin:miter;stroke-opacity:1"
       d="m 71.455682,910.04036 c 0,-140.55404 0,-140.55404 0,-140.55404"
       id="path4614-9"
       inkscape:connector-curvature="0" />
    <path
       style="fill:none;stroke:#000000;stroke-width:1.17908013px;stroke-linecap:butt;stroke-linejoin:miter;stroke-opacity:1"
       d="m 354.92025,910.04036 c 0,-140.55404 0,-140.55404 0,-140.55404"
       id="path4614-9-6"
       inkscape:connector-curvature="0" />
    <path
       style="fill:none;stroke:#000000;stroke-width:1.17908013px;stroke-linecap:butt;stroke-linejoin:miter;stroke-opacity:1"
       d="m 142.32182,697.44193 c 140.55404,0 140.55404,0 140.55404,0"
       id="path4614-9-6-7"
       inkscape:connector-curvature="0" />
    <path
       style="fill:none;stroke:#000000;stroke-width:1px;stroke-linecap:butt;stroke-linejoin:miter;stroke-opacity:1"
       d="m 120.71323,931.64895 c 184.1003,-184.1003 184.16344,-184.1003 184.16344,-184.1003"
       id="path4670"
       inkscape:connector-curvature="0" />
    <path
       style="fill:none;stroke:#000000;stroke-width:1px;stroke-linecap:butt;stroke-linejoin:miter;stroke-opacity:1"
       d="M 303.47872,932.30105 C 119.37842,748.20075 119.37842,748.13761 119.37842,748.13761"
       id="path4670-4"
       inkscape:connector-curvature="0" />
    <path
       style="font-size:medium;font-style:normal;font-variant:normal;font-weight:normal;font-stretch:normal;text-indent:0;text-align:start;text-decoration:none;line-height:normal;letter-spacing:normal;word-spacing:normal;text-transform:none;direction:ltr;block-progression:tb;writing-mode:lr-tb;text-anchor:start;baseline-shift:baseline;color:#000000;fill:#000000;fill-opacity:1;stroke:none;stroke-width:1.17637789;marker:none;visibility:visible;display:inline;overflow:visible;enable-background:accumulate;font-family:Sans;-inkscape-font-specification:Sans"
       d="m 141.75579,697.36296 0.19583,0.19583 7.65784,7.65784 0.19583,0.19583 0.19582,-0.19583 -7.70393,-7.62148 0.18552,-0.18553 -0.19582,-0.19582 8.20904,-8.19915 -0.19583,-0.19582 -0.18551,0.18551 -8.16288,8.16288 z m 2.58828,-0.0523 6.04953,-8.38525 -8.68391,8.4739 8.21023,7.86481 z"
       id="rect4706"
       inkscape:connector-curvature="0"
       sodipodi:nodetypes="cccccccccccccccccc" />
    <path
       style="font-size:medium;font-style:normal;font-variant:normal;font-weight:normal;font-stretch:normal;text-indent:0;text-align:start;text-decoration:none;line-height:normal;letter-spacing:normal;word-spacing:normal;text-transform:none;direction:ltr;block-progression:tb;writing-mode:lr-tb;text-anchor:start;baseline-shift:baseline;color:#000000;fill:#000000;fill-opacity:1;stroke:none;stroke-width:1.17637789;marker:none;visibility:visible;display:inline;overflow:visible;enable-background:accumulate;font-family:Sans;-inkscape-font-specification:Sans"
       d="m 119.85645,748.62537 0,0.27694 0,10.82983 0,0.27694 0.27694,0 -0.0583,-10.83671 0.26237,0 0,-0.27694 11.60234,0.007 0,-0.27694 -0.26236,0 -11.54405,0 z m 1.86716,1.79322 10.20693,-1.6516 -12.1324,-0.1485 0.24425,11.36677 z"
       id="rect4706-3"
       inkscape:connector-curvature="0"
       sodipodi:nodetypes="cccccccccccccccccc" />
    <path
       style="font-size:medium;font-style:normal;font-variant:normal;font-weight:normal;font-stretch:normal;text-indent:0;text-align:start;text-decoration:none;line-height:normal;letter-spacing:normal;word-spacing:normal;text-transform:none;direction:ltr;block-progression:tb;writing-mode:lr-tb;text-anchor:start;baseline-shift:baseline;color:#000000;fill:#000000;fill-opacity:1;stroke:none;stroke-width:1.17637789;marker:none;visibility:visible;display:inline;overflow:visible;enable-background:accumulate;font-family:Sans;-inkscape-font-specification:Sans"
       d="m 71.438587,910.69909 0.195826,-0.19583 7.657847,-7.65785 0.19583,-0.19582 -0.19583,-0.19583 -7.621487,7.70394 -0.185524,-0.18553 -0.195826,0.19583 -8.199143,-8.20904 -0.195826,0.19582 0.185516,0.18552 8.162876,8.16287 z m -0.05228,-2.58828 -8.385247,-6.04954 8.473896,8.68391 7.864807,-8.21023 z"
       id="rect4706-9"
       inkscape:connector-curvature="0"
       sodipodi:nodetypes="cccccccccccccccccc" />
    <path
       style="font-size:medium;font-style:normal;font-variant:normal;font-weight:normal;font-stretch:normal;text-indent:0;text-align:start;text-decoration:none;line-height:normal;letter-spacing:normal;word-spacing:normal;text-transform:none;direction:ltr;block-progression:tb;writing-mode:lr-tb;text-anchor:start;baseline-shift:baseline;color:#000000;fill:#000000;fill-opacity:1;stroke:none;stroke-width:1.17637789;marker:none;visibility:visible;display:inline;overflow:visible;enable-background:accumulate;font-family:Sans;-inkscape-font-specification:Sans"
       d="m 283.72978,697.39268 -0.19583,-0.19583 -7.65784,-7.65784 -0.19583,-0.19583 -0.19582,0.19583 7.70393,7.62148 -0.18552,0.18553 0.19582,0.19582 -8.20904,8.19915 0.19583,0.19582 0.18551,-0.18551 8.16288,-8.16288 z m -2.58828,0.0523 -6.04953,8.38525 8.68391,-8.4739 -8.21023,-7.86481 z"
       id="rect4706-7"
       inkscape:connector-curvature="0"
       sodipodi:nodetypes="cccccccccccccccccc" />
    <path
       style="font-size:medium;font-style:normal;font-variant:normal;font-weight:normal;font-stretch:normal;text-indent:0;text-align:start;text-decoration:none;line-height:normal;letter-spacing:normal;word-spacing:normal;text-transform:none;direction:ltr;block-progression:tb;writing-mode:lr-tb;text-anchor:start;baseline-shift:baseline;color:#000000;fill:#000000;fill-opacity:1;stroke:none;stroke-width:1.17637789;marker:none;visibility:visible;display:inline;overflow:visible;enable-background:accumulate;font-family:Sans;-inkscape-font-specification:Sans"
       d="m 304.56162,747.88793 -0.27694,3e-5 -10.82983,0 -0.27695,2e-5 2e-5,0.27694 10.83672,-0.0583 -10e-6,0.26237 0.27694,-2e-5 -0.007,11.60234 0.27695,-2e-5 0,-0.26236 0,-11.54406 z m -1.79321,1.86716 1.65159,10.20693 0.14851,-12.1324 -11.36677,0.24426 z"
       id="rect4706-2"
       inkscape:connector-curvature="0"
       sodipodi:nodetypes="cccccccccccccccccc" />
    <path
       style="font-size:medium;font-style:normal;font-variant:normal;font-weight:normal;font-stretch:normal;text-indent:0;text-align:start;text-decoration:none;line-height:normal;letter-spacing:normal;word-spacing:normal;text-transform:none;direction:ltr;block-progression:tb;writing-mode:lr-tb;text-anchor:start;baseline-shift:baseline;color:#000000;fill:#000000;fill-opacity:1;stroke:none;stroke-width:1.17637789;marker:none;visibility:visible;display:inline;overflow:visible;enable-background:accumulate;font-family:Sans;-inkscape-font-specification:Sans"
       d="m 354.83524,910.70765 0.19582,-0.19583 7.65785,-7.65785 0.19583,-0.19582 -0.19583,-0.19583 -7.62149,7.70394 -0.18552,-0.18553 -0.19583,0.19583 -8.19914,-8.20904 -0.19583,0.19582 0.18552,0.18552 8.16288,8.16287 z m -0.0523,-2.58828 -8.38524,-6.04954 8.47389,8.68391 7.86481,-8.21023 z"
       id="rect4706-1"
       inkscape:connector-curvature="0"
       sodipodi:nodetypes="cccccccccccccccccc" />
    <path
       style="font-size:medium;font-style:normal;font-variant:normal;font-weight:normal;font-stretch:normal;text-indent:0;text-align:start;text-decoration:none;line-height:normal;letter-spacing:normal;word-spacing:normal;text-transform:none;direction:ltr;block-progression:tb;writing-mode:lr-tb;text-anchor:start;baseline-shift:baseline;color:#000000;fill:#000000;fill-opacity:1;stroke:none;stroke-width:1.17637789;marker:none;visibility:visible;display:inline;overflow:visible;enable-background:accumulate;font-family:Sans;-inkscape-font-specification:Sans"
       d="m 71.518758,768.87505 0.170872,0.17087 6.681876,6.68188 0.170865,0.17086 -0.167321,0.16732 -6.650898,-6.72134 -0.158513,0.15852 -0.170872,-0.17088 -7.005367,7.01386 -0.170872,-0.17088 0.1585,-0.1585 6.9744,-6.9744 z m -0.02166,2.23445 -7.185601,5.14756 7.23824,-7.42148 6.865598,7.16073 z"
       id="rect4706-13"
       inkscape:connector-curvature="0"
       sodipodi:nodetypes="cccccccccccccccccc" />
    <path
       style="font-size:medium;font-style:normal;font-variant:normal;font-weight:normal;font-stretch:normal;text-indent:0;text-align:start;text-decoration:none;line-height:normal;letter-spacing:normal;word-spacing:normal;text-transform:none;direction:ltr;block-progression:tb;writing-mode:lr-tb;text-anchor:start;baseline-shift:baseline;color:#000000;fill:#000000;fill-opacity:1;stroke:none;stroke-width:1.17637789;marker:none;visibility:visible;display:inline;overflow:visible;enable-background:accumulate;font-family:Sans;-inkscape-font-specification:Sans"
       d="m 303.64742,932.43191 0,-0.27694 0,-10.82983 0,-0.27694 -0.27694,0 0.0583,10.83671 -0.26237,0 0,0.27694 -11.60234,-0.007 0,0.27694 0.26236,0 11.54405,0 z m -1.86716,-1.79322 -10.20693,1.6516 12.1324,0.1485 -0.24425,-11.36677 z"
       id="rect4706-5"
       inkscape:connector-curvature="0"
       sodipodi:nodetypes="cccccccccccccccccc" />
    <path
       style="font-size:medium;font-style:normal;font-variant:normal;font-weight:normal;font-stretch:normal;text-indent:0;text-align:start;text-decoration:none;line-height:normal;letter-spacing:normal;word-spacing:normal;text-transform:none;direction:ltr;block-progression:tb;writing-mode:lr-tb;text-anchor:start;baseline-shift:baseline;color:#000000;fill:#000000;fill-opacity:1;stroke:none;stroke-width:1.17637789;marker:none;visibility:visible;display:inline;overflow:visible;enable-background:accumulate;font-family:Sans;-inkscape-font-specification:Sans"
       d="m 141.69048,980.80565 0.19583,0.19583 7.65784,7.65784 0.19583,0.19583 0.19582,-0.19583 -7.70393,-7.62148 0.18552,-0.18553 -0.19582,-0.19582 8.20904,-8.19915 -0.19583,-0.19582 -0.18551,0.18551 -8.16288,8.16288 z m 2.58828,-0.0523 6.04953,-8.38525 -8.68391,8.4739 8.21023,7.86481 z"
       id="rect4706-32"
       inkscape:connector-curvature="0"
       sodipodi:nodetypes="cccccccccccccccccc" />
    <path
       style="font-size:medium;font-style:normal;font-variant:normal;font-weight:normal;font-stretch:normal;text-indent:0;text-align:start;text-decoration:none;line-height:normal;letter-spacing:normal;word-spacing:normal;text-transform:none;direction:ltr;block-progression:tb;writing-mode:lr-tb;text-anchor:start;baseline-shift:baseline;color:#000000;fill:#000000;fill-opacity:1;stroke:none;stroke-width:1.17637789;marker:none;visibility:visible;display:inline;overflow:visible;enable-background:accumulate;font-family:Sans;-inkscape-font-specification:Sans"
       d="m 283.57739,980.88301 -0.19583,-0.19583 -7.65784,-7.65784 -0.19583,-0.19583 -0.19582,0.19583 7.70393,7.62148 -0.18552,0.18553 0.19582,0.19582 -8.20904,8.19915 0.19583,0.19582 0.18551,-0.18551 8.16288,-8.16288 z m -2.58828,0.0523 -6.04953,8.38525 8.68391,-8.4739 -8.21023,-7.86481 z"
       id="rect4706-99"
       inkscape:connector-curvature="0"
       sodipodi:nodetypes="cccccccccccccccccc" />
    <path
       style="font-size:medium;font-style:normal;font-variant:normal;font-weight:normal;font-stretch:normal;text-indent:0;text-align:start;text-decoration:none;line-height:normal;letter-spacing:normal;word-spacing:normal;text-transform:none;direction:ltr;block-progression:tb;writing-mode:lr-tb;text-anchor:start;baseline-shift:baseline;color:#000000;fill:#000000;fill-opacity:1;stroke:none;stroke-width:1.17637789;marker:none;visibility:visible;display:inline;overflow:visible;enable-background:accumulate;font-family:Sans;-inkscape-font-specification:Sans"
       d="m 120.62409,931.6872 0.27693,0 10.82984,0 0.27693,0 0,-0.27694 -10.83671,0.0583 0,-0.26237 -0.27694,0 0.007,-11.60233 -0.27694,0 0,0.26235 0,11.54405 z m 1.79322,-1.86716 -1.6516,-10.20693 -0.1485,12.1324 11.36676,-0.24425 z"
       id="rect4706-32-5"
       inkscape:connector-curvature="0"
       sodipodi:nodetypes="cccccccccccccccccc" />
    <path
       style="font-size:medium;font-style:normal;font-variant:normal;font-weight:normal;font-stretch:normal;text-indent:0;text-align:start;text-decoration:none;line-height:normal;letter-spacing:normal;word-spacing:normal;text-transform:none;direction:ltr;block-progression:tb;writing-mode:lr-tb;text-anchor:start;baseline-shift:baseline;color:#000000;fill:#000000;fill-opacity:1;stroke:none;stroke-width:1.17637789;marker:none;visibility:visible;display:inline;overflow:visible;enable-background:accumulate;font-family:Sans;-inkscape-font-specification:Sans"
       d="m 354.82682,768.75866 -0.19582,0.19583 -7.65785,7.65785 -0.19583,0.19582 0.19583,0.19583 7.62149,-7.70394 0.18552,0.18553 0.19583,-0.19583 8.19914,8.20904 0.19583,-0.19582 -0.18552,-0.18552 -8.16288,-8.16287 z m 0.0523,2.58828 8.38524,6.04954 -8.47389,-8.68391 -7.86481,8.21023 z"
       id="rect4706-2-1"
       inkscape:connector-curvature="0"
       sodipodi:nodetypes="cccccccccccccccccc" />
  </g>
</svg>
